{
  "type": "Program",
  "body": [
    {
      "type": "ExpressionStatement",
      "expression": {
        "type": "AssignmentExpression",
        "operator": "=",
        "left": {
          "type": "Identifier",
          "name": "a"
        },
        "right": {
          "type": "CallExpression",
          "callee": {
            "type": "Identifier",
            "name": "b"
          },
          "arguments": [
            {
              "type": "Literal",
              "value": "nis",
              "raw": "'nis'"
            }
          ]
        }
      }
    },
    {
      "type": "WhileStatement",
      "test": {
        "type": "Literal",
        "value": true,
        "raw": "true"
      },
      "body": {
        "type": "BlockStatement",
        "body": [
          {
            "type": "IfStatement",
            "test": {
              "type": "BinaryExpression",
              "operator": "==",
              "left": {
                "type": "Identifier",
                "name": "x"
              },
              "right": {
                "type": "Literal",
                "value": 10,
                "raw": "10"
              }
            },
            "consequent": {
              "type": "BlockStatement",
              "body": [
                {
                  "type": "ExpressionStatement",
                  "expression": {
                    "type": "AssignmentExpression",
                    "operator": "=",
                    "left": {
                      "type": "Identifier",
                      "name": "a"
                    },
                    "right": {
                      "type": "CallExpression",
                      "callee": {
                        "type": "Identifier",
                        "name": "s"
                      },
                      "arguments": [
                        {
                          "type": "Identifier",
                          "name": "a"
                        },
                        {
                          "type": "Literal",
                          "value": 1,
                          "raw": "1"
                        }
                      ]
                    }
                  }
                }
              ]
            },
            "alternate": null
          }
        ]
      }
    },
    {
      "type": "ExpressionStatement",
      "expression": {
        "type": "AssignmentExpression",
        "operator": "=",
        "left": {
          "type": "Identifier",
          "name": "q"
        },
        "right": {
          "type": "CallExpression",
          "callee": {
            "type": "Identifier",
            "name": "x"
          },
          "arguments": [
            {
              "type": "Identifier",
              "name": "a"
            }
          ]
        }
      }
    }
  ],
  "sourceType": "script"
}
