{
  "type": "Program",
  "body": [
    {
      "type": "ExpressionStatement",
      "expression": {
        "type": "CallExpression",
        "callee": {
          "type": "Identifier",
          "name": "b"
        },
        "arguments": [
          {
            "type": "BinaryExpression",
            "operator": "in",
            "left": {
              "type": "Identifier",
              "name": "a"
            },
            "right": {
              "type": "Literal",
              "value": "",
              "raw": "\"\""
            }
          }
        ]
      }
    }
  ],
  "sourceType": "script"
}
