{
  "type": "Program",
  "body": [
    {
      "type": "IfStatement",
      "test": {
        "type": "Literal",
        "value": 1,
        "raw": "1"
      },
      "consequent": {
        "type": "ExpressionStatement",
        "expression": {
          "type": "AssignmentExpression",
          "operator": "=",
          "left": {
            "type": "Identifier",
            "name": "a"
          },
          "right": {
            "type": "Literal",
            "value": 2,
            "raw": "2"
          }
        }
      },
      "alternate": {
        "type": "ExpressionStatement",
        "expression": {
          "type": "AssignmentExpression",
          "operator": "=",
          "left": {
            "type": "Identifier",
            "name": "a"
          },
          "right": {
            "type": "Literal",
            "value": 1,
            "raw": "1"
          }
        }
      }
    },
    {
      "type": "ExpressionStatement",
      "expression": {
        "type": "CallExpression",
        "callee": {
          "type": "Identifier",
          "name": "b"
        },
        "arguments": [
          {
            "type": "CallExpression",
            "callee": {
              "type": "Identifier",
              "name": "a"
            },
            "arguments": []
          }
        ]
      }
    }
  ],
  "sourceType": "script"
}
