{
  "type": "Program",
  "body": [
    {
      "type": "ExpressionStatement",
      "expression": {
        "type": "CallExpression",
        "callee": {
          "type": "Identifier",
          "name": "b"
        },
        "arguments": [
          {
            "type": "Identifier",
            "name": "a"
          },
          {
            "type": "CallExpression",
            "callee": {
              "type": "Identifier",
              "name": "s"
            },
            "arguments": [
              {
                "type": "CallExpression",
                "callee": {
                  "type": "Identifier",
                  "name": "a"
                },
                "arguments": []
              }
            ]
          }
        ]
      }
    }
  ],
  "sourceType": "script"
}
