{
  "type": "Program",
  "body": [
    {
      "type": "ExpressionStatement",
      "expression": {
        "type": "AssignmentExpression",
        "operator": "=",
        "left": {
          "type": "MemberExpression",
          "computed": false,
          "object": {
            "type": "MemberExpression",
            "computed": false,
            "object": {
              "type": "MemberExpression",
              "computed": false,
              "object": {
                "type": "MemberExpression",
                "computed": false,
                "object": {
                  "type": "MemberExpression",
                  "computed": false,
                  "object": {
                    "type": "MemberExpression",
                    "computed": false,
                    "object": {
                      "type": "MemberExpression",
                      "computed": false,
                      "object": {
                        "type": "MemberExpression",
                        "computed": false,
                        "object": {
                          "type": "MemberExpression",
                          "computed": false,
                          "object": {
                            "type": "MemberExpression",
                            "computed": false,
                            "object": {
                              "type": "MemberExpression",
                              "computed": false,
                              "object": {
                                "type": "MemberExpression",
                                "computed": false,
                                "object": {
                                  "type": "MemberExpression",
                                  "computed": false,
                                  "object": {
                                    "type": "MemberExpression",
                                    "computed": false,
                                    "object": {
                                      "type": "MemberExpression",
                                      "computed": false,
                                      "object": {
                                        "type": "MemberExpression",
                                        "computed": false,
                                        "object": {
                                          "type": "MemberExpression",
                                          "computed": false,
                                          "object": {
                                            "type": "MemberExpression",
                                            "computed": false,
                                            "object": {
                                              "type": "MemberExpression",
                                              "computed": false,
                                              "object": {
                                                "type": "MemberExpression",
                                                "computed": false,
                                                "object": {
                                                  "type": "MemberExpression",
                                                  "computed": false,
                                                  "object": {
                                                    "type": "MemberExpression",
                                                    "computed": false,
                                                    "object": {
                                                      "type": "MemberExpression",
                                                      "computed": false,
                                                      "object": {
                                                        "type": "MemberExpression",
                                                        "computed": false,
                                                        "object": {
                                                          "type": "MemberExpression",
                                                          "computed": false,
                                                          "object": {
                                                            "type": "MemberExpression",
                                                            "computed": false,
                                                            "object": {
                                                              "type": "MemberExpression",
                                                              "computed": false,
                                                              "object": {
                                                                "type": "MemberExpression",
                                                                "computed": false,
                                                                "object": {
                                                                  "type": "MemberExpression",
                                                                  "computed": false,
                                                                  "object": {
                                                                    "type": "MemberExpression",
                                                                    "computed": false,
                                                                    "object": {
                                                                      "type": "MemberExpression",
                                                                      "computed": false,
                                                                      "object": {
                                                                        "type": "MemberExpression",
                                                                        "computed": false,
                                                                        "object": {
                                                                          "type": "MemberExpression",
                                                                          "computed": false,
                                                                          "object": {
                                                                            "type": "MemberExpression",
                                                                            "computed": false,
                                                                            "object": {
                                                                              "type": "MemberExpression",
                                                                              "computed": false,
                                                                              "object": {
                                                                                "type": "MemberExpression",
                                                                                "computed": false,
                                                                                "object": {
                                                                                  "type": "MemberExpression",
                                                                                  "computed": false,
                                                                                  "object": {
                                                                                    "type": "MemberExpression",
                                                                                    "computed": false,
                                                                                    "object": {
                                                                                      "type": "MemberExpression",
                                                                                      "computed": false,
                                                                                      "object": {
                                                                                        "type": "MemberExpression",
                                                                                        "computed": false,
                                                                                        "object": {
                                                                                          "type": "MemberExpression",
                                                                                          "computed": false,
                                                                                          "object": {
                                                                                            "type": "MemberExpression",
                                                                                            "computed": false,
                                                                                            "object": {
                                                                                              "type": "MemberExpression",
                                                                                              "computed": false,
                                                                                              "object": {
                                                                                                "type": "MemberExpression",
                                                                                                "computed": false,
                                                                                                "object": {
                                                                                                  "type": "MemberExpression",
                                                                                                  "computed": false,
                                                                                                  "object": {
                                                                                                    "type": "MemberExpression",
                                                                                                    "computed": false,
                                                                                                    "object": {
                                                                                                      "type": "MemberExpression",
                                                                                                      "computed": false,
                                                                                                      "object": {
                                                                                                        "type": "Identifier",
                                                                                                        "name": "x"
                                                                                                      },
                                                                                                      "property": {
                                                                                                        "type": "Identifier",
                                                                                                        "name": "y"
                                                                                                      }
                                                                                                    },
                                                                                                    "property": {
                                                                                                      "type": "Identifier",
                                                                                                      "name": "y"
                                                                                                    }
                                                                                                  },
                                                                                                  "property": {
                                                                                                    "type": "Identifier",
                                                                                                    "name": "y"
                                                                                                  }
                                                                                                },
                                                                                                "property": {
                                                                                                  "type": "Identifier",
                                                                                                  "name": "y"
                                                                                                }
                                                                                              },
                                                                                              "property": {
                                                                                                "type": "Identifier",
                                                                                                "name": "y"
                                                                                              }
                                                                                            },
                                                                                            "property": {
                                                                                              "type": "Identifier",
                                                                                              "name": "y"
                                                                                            }
                                                                                          },
                                                                                          "property": {
                                                                                            "type": "Identifier",
                                                                                            "name": "y"
                                                                                          }
                                                                                        },
                                                                                        "property": {
                                                                                          "type": "Identifier",
                                                                                          "name": "y"
                                                                                        }
                                                                                      },
                                                                                      "property": {
                                                                                        "type": "Identifier",
                                                                                        "name": "y"
                                                                                      }
                                                                                    },
                                                                                    "property": {
                                                                                      "type": "Identifier",
                                                                                      "name": "y"
                                                                                    }
                                                                                  },
                                                                                  "property": {
                                                                                    "type": "Identifier",
                                                                                    "name": "y"
                                                                                  }
                                                                                },
                                                                                "property": {
                                                                                  "type": "Identifier",
                                                                                  "name": "y"
                                                                                }
                                                                              },
                                                                              "property": {
                                                                                "type": "Identifier",
                                                                                "name": "y"
                                                                              }
                                                                            },
                                                                            "property": {
                                                                              "type": "Identifier",
                                                                              "name": "y"
                                                                            }
                                                                          },
                                                                          "property": {
                                                                            "type": "Identifier",
                                                                            "name": "y"
                                                                          }
                                                                        },
                                                                        "property": {
                                                                          "type": "Identifier",
                                                                          "name": "y"
                                                                        }
                                                                      },
                                                                      "property": {
                                                                        "type": "Identifier",
                                                                        "name": "y"
                                                                      }
                                                                    },
                                                                    "property": {
                                                                      "type": "Identifier",
                                                                      "name": "y"
                                                                    }
                                                                  },
                                                                  "property": {
                                                                    "type": "Identifier",
                                                                    "name": "y"
                                                                  }
                                                                },
                                                                "property": {
                                                                  "type": "Identifier",
                                                                  "name": "y"
                                                                }
                                                              },
                                                              "property": {
                                                                "type": "Identifier",
                                                                "name": "y"
                                                              }
                                                            },
                                                            "property": {
                                                              "type": "Identifier",
                                                              "name": "y"
                                                            }
                                                          },
                                                          "property": {
                                                            "type": "Identifier",
                                                            "name": "y"
                                                          }
                                                        },
                                                        "property": {
                                                          "type": "Identifier",
                                                          "name": "y"
                                                        }
                                                      },
                                                      "property": {
                                                        "type": "Identifier",
                                                        "name": "y"
                                                      }
                                                    },
                                                    "property": {
                                                      "type": "Identifier",
                                                      "name": "y"
                                                    }
                                                  },
                                                  "property": {
                                                    "type": "Identifier",
                                                    "name": "y"
                                                  }
                                                },
                                                "property": {
                                                  "type": "Identifier",
                                                  "name": "y"
                                                }
                                              },
                                              "property": {
                                                "type": "Identifier",
                                                "name": "y"
                                              }
                                            },
                                            "property": {
                                              "type": "Identifier",
                                              "name": "y"
                                            }
                                          },
                                          "property": {
                                            "type": "Identifier",
                                            "name": "y"
                                          }
                                        },
                                        "property": {
                                          "type": "Identifier",
                                          "name": "y"
                                        }
                                      },
                                      "property": {
                                        "type": "Identifier",
                                        "name": "y"
                                      }
                                    },
                                    "property": {
                                      "type": "Identifier",
                                      "name": "y"
                                    }
                                  },
                                  "property": {
                                    "type": "Identifier",
                                    "name": "y"
                                  }
                                },
                                "property": {
                                  "type": "Identifier",
                                  "name": "y"
                                }
                              },
                              "property": {
                                "type": "Identifier",
                                "name": "y"
                              }
                            },
                            "property": {
                              "type": "Identifier",
                              "name": "y"
                            }
                          },
                          "property": {
                            "type": "Identifier",
                            "name": "y"
                          }
                        },
                        "property": {
                          "type": "Identifier",
                          "name": "y"
                        }
                      },
                      "property": {
                        "type": "Identifier",
                        "name": "y"
                      }
                    },
                    "property": {
                      "type": "Identifier",
                      "name": "y"
                    }
                  },
                  "property": {
                    "type": "Identifier",
                    "name": "y"
                  }
                },
                "property": {
                  "type": "Identifier",
                  "name": "y"
                }
              },
              "property": {
                "type": "Identifier",
                "name": "y"
              }
            },
            "property": {
              "type": "Identifier",
              "name": "y"
            }
          },
          "property": {
            "type": "Identifier",
            "name": "y"
          }
        },
        "right": {
          "type": "Identifier",
          "name": "a"
        }
      }
    },
    {
      "type": "WhileStatement",
      "test": {
        "type": "Literal",
        "value": true,
        "raw": "true"
      },
      "body": {
        "type": "BlockStatement",
        "body": [
          {
            "type": "ExpressionStatement",
            "expression": {
              "type": "AssignmentExpression",
              "operator": "=",
              "left": {
                "type": "Identifier",
                "name": "x"
              },
              "right": {
                "type": "MemberExpression",
                "computed": false,
                "object": {
                  "type": "Identifier",
                  "name": "x"
                },
                "property": {
                  "type": "Identifier",
                  "name": "y"
                }
              }
            }
          }
        ]
      }
    },
    {
      "type": "ExpressionStatement",
      "expression": {
        "type": "CallExpression",
        "callee": {
          "type": "Identifier",
          "name": "b"
        },
        "arguments": [
          {
            "type": "Identifier",
            "name": "x"
          }
        ]
      }
    }
  ],
  "sourceType": "script"
}
